Data Analysis with R - Manipulating Data in R
…
Reshaping data from wide to long

long <- circ %>% 
  pivot_longer(starts_with(c("orange","purple","green","banner")))
long

# A tibble: 13,752 × 5
   day    date       daily name             value
   <chr>  <chr>      <dbl> <chr>            <dbl>
 1 Monday 01/11/2010   952 orangeBoardings    877
 2 Monday 01/11/2010   952 orangeAlightings  1027
 3 Monday 01/11/2010   952 orangeAverage      952
 4 Monday 01/11/2010   952 purpleBoardings     NA
 5 Monday 01/11/2010   952 purpleAlightings    NA
 6 Monday 01/11/2010   952 purpleAverage       NA
 7 Monday 01/11/2010   952 greenBoardings      NA
 8 Monday 01/11/2010   952 greenAlightings     NA
 9 Monday 01/11/2010   952 greenAverage        NA
10 Monday 01/11/2010   952 bannerBoardings     NA
# … with 13,742 more rows

Reshaping data from wide to long

There are many ways to select the columns we want. Use ?tidyr_tidy_select to look at more column selection options.

long <- circ %>% 
  pivot_longer( !c(day, date, daily))
long

# A tibble: 13,752 × 5
   day    date       daily name             value
   <chr>  <chr>      <dbl> <chr>            <dbl>
 1 Monday 01/11/2010   952 orangeBoardings    877
 2 Monday 01/11/2010   952 orangeAlightings  1027
 3 Monday 01/11/2010   952 orangeAverage      952
 4 Monday 01/11/2010   952 purpleBoardings     NA
 5 Monday 01/11/2010   952 purpleAlightings    NA
 6 Monday 01/11/2010   952 purpleAverage       NA
 7 Monday 01/11/2010   952 greenBoardings      NA
 8 Monday 01/11/2010   952 greenAlightings     NA
 9 Monday 01/11/2010   952 greenAverage        NA
10 Monday 01/11/2010   952 bannerBoardings     NA
# … with 13,742 more rows
…
Cleaning up long data

We will use str_replace from the stringr package to put _ in the names

long <- long %>% mutate(
  name = str_replace(name, "Board", "_Board"),
  name = str_replace(name, "Alight", "_Alight"),
  name = str_replace(name, "Average", "_Average") 
)
long

# A tibble: 13,752 × 5
   day    date       daily name              value
   <chr>  <chr>      <dbl> <chr>             <dbl>
 1 Monday 01/11/2010   952 orange_Boardings    877
 2 Monday 01/11/2010   952 orange_Alightings  1027
 3 Monday 01/11/2010   952 orange_Average      952
 4 Monday 01/11/2010   952 purple_Boardings     NA
 5 Monday 01/11/2010   952 purple_Alightings    NA
 6 Monday 01/11/2010   952 purple_Average       NA
 7 Monday 01/11/2010   952 green_Boardings      NA
 8 Monday 01/11/2010   952 green_Alightings     NA
 9 Monday 01/11/2010   952 green_Average        NA
10 Monday 01/11/2010   952 banner_Boardings     NA
# … with 13,742 more rows

Cleaning up long data

Now each var is Boardings, Averages, or Alightings. We use “into =” to name the new columns and “sep =” to show where the separation should happen.

long <- long %>% 
  separate(name, into = c("line", "type"), sep = "_")
long

# A tibble: 13,752 × 6
   day    date       daily line   type       value
   <chr>  <chr>      <dbl> <chr>  <chr>      <dbl>
 1 Monday 01/11/2010   952 orange Boardings    877
 2 Monday 01/11/2010   952 orange Alightings  1027
 3 Monday 01/11/2010   952 orange Average      952
 4 Monday 01/11/2010   952 purple Boardings     NA
 5 Monday 01/11/2010   952 purple Alightings    NA
 6 Monday 01/11/2010   952 purple Average       NA
 7 Monday 01/11/2010   952 green  Boardings     NA
 8 Monday 01/11/2010   952 green  Alightings    NA
 9 Monday 01/11/2010   952 green  Average       NA
10 Monday 01/11/2010   952 banner Boardings     NA
# … with 13,742 more rows
…
wide_data <- long_data %>% pivot_wider(names_from = "Month", 
                                       values_from = "Rate") 
wide_data

# A tibble: 1 × 3
  June_vacc_rate May_vacc_rate April_vacc_rate
  <chr>          <chr>         <chr>          
1 37.2%          36.0%         32.4%          

Reshaping Charm City Circulator

long

# A tibble: 13,752 × 6
   day    date       daily line   type       value
   <chr>  <chr>      <dbl> <chr>  <chr>      <dbl>
 1 Monday 01/11/2010   952 orange Boardings    877
 2 Monday 01/11/2010   952 orange Alightings  1027
 3 Monday 01/11/2010   952 orange Average      952
 4 Monday 01/11/2010   952 purple Boardings     NA
 5 Monday 01/11/2010   952 purple Alightings    NA
 6 Monday 01/11/2010   952 purple Average       NA
 7 Monday 01/11/2010   952 green  Boardings     NA
 8 Monday 01/11/2010   952 green  Alightings    NA
 9 Monday 01/11/2010   952 green  Average       NA
10 Monday 01/11/2010   952 banner Boardings     NA
# … with 13,742 more rows

Reshaping Charm City Circulator

wide <- long %>% pivot_wider(names_from = "type", 
                             values_from = "value") 
wide

# A tibble: 4,584 × 7
   day       date       daily line   Boardings Alightings Average
   <chr>     <chr>      <dbl> <chr>      <dbl>      <dbl>   <dbl>
 1 Monday    01/11/2010  952  orange       877       1027    952 
 2 Monday    01/11/2010  952  purple        NA         NA     NA 
 3 Monday    01/11/2010  952  green         NA         NA     NA 
 4 Monday    01/11/2010  952  banner        NA         NA     NA 
 5 Tuesday   01/12/2010  796  orange       777        815    796 
 6 Tuesday   01/12/2010  796  purple        NA         NA     NA 
 7 Tuesday   01/12/2010  796  green         NA         NA     NA 
 8 Tuesday   01/12/2010  796  banner        NA         NA     NA 
 9 Wednesday 01/13/2010 1212. orange      1203       1220   1212.
10 Wednesday 01/13/2010 1212. purple        NA         NA     NA 
# … with 4,574 more rows
…
