Data Analysis with R - Subsetting Data with Base R - Base R
…
 [1] 4 4 1 1 2 1 4 2 2 4 4 3 3 3 4 4 4 1 2 1 1 2 2 4 2 1 2 2 4 6 8 2

Biggest difference between tbl and data.frame:

Mostly, tbl (tibbles) are the same as data.frames, except they don’t print all lines. When subsetting only one column using brackets, a data.frame will return a vector, but a tbl will return a tbl

df[, 1]

 [1] 21.0 21.0 22.8 21.4 18.7 18.1 14.3 24.4 22.8 19.2 17.8 16.4 17.3 15.2 10.4
[16] 10.4 14.7 32.4 30.4 33.9 21.5 15.5 15.2 13.3 19.2 27.3 26.0 30.4 15.8 19.7
[31] 15.0 21.4

tbl[, 1]

# A tibble: 32 × 1
     mpg
   <dbl>
 1  21  
 2  21  
 3  22.8
 4  21.4
 5  18.7
 6  18.1
 7  14.3
 8  24.4
 9  22.8
10  19.2
# … with 22 more rows

tbl[, "mpg"]

# A tibble: 32 × 1
     mpg
   <dbl>
 1  21  
 2  21  
 3  22.8
 4  21.4
 5  18.7
 6  18.1
 7  14.3
 8  24.4
 9  22.8
10  19.2
# … with 22 more rows
…
