Data Analysis with R – intermediate_r
…
List function next: .fns =

Then list any arguments for the function

Applying functions with across from dplyr.

Combining with summarize():

cars_dbl <- cars %>% select(Make, Model, where(is.double))

cars_dbl %>%
  group_by(Make) %>%
  summarize(across(.cols = everything(), .fns = mean))

# A tibble: 33 × 12
   Make      Model  RefId IsBadBuy VehYear Vehicl…¹ VehOdo  BYRNO VNZIP1 VehBC…²
   <chr>     <dbl>  <dbl>    <dbl>   <dbl>    <dbl>  <dbl>  <dbl>  <dbl>   <dbl>
 1 ACURA        NA 36021.   0.273    2003.     6.52 81732. 21851. 61217.   9039.
 2 BUICK        NA 35431.   0.157    2004.     5.65 76238. 19755. 51298.   6169.
 3 CADILLAC     NA 34173.   0.152    2004.     5.24 73770. 20383. 50775.  10958.
 4 CHEVROLET    NA 35417.   0.0975   2006.     3.97 73390. 26912. 58874.   6835.
 5 CHRYSLER     NA 37614.   0.129    2006.     3.65 66814. 31268. 58562.   6507.
 6 DODGE        NA 36851.   0.103    2006.     3.75 68261. 36094. 58788.   7047.
 7 FORD         NA 36866.   0.154    2005.     4.75 76749. 19887. 59427.   6403.
 8 GMC          NA 35245.   0.116    2004.     5.61 79273. 18802. 58113.   8342.
 9 HONDA        NA 35109.   0.109    2004.     5.33 77877. 24161. 52659.   8350.
10 HUMMER       NA 19533    0        2006      3    70809  21053  95673   11920 
# … with 23 more rows, 2 more variables: IsOnlineSale <dbl>,
#   WarrantyCost <dbl>, and abbreviated variable names ¹​VehicleAge, ²​VehBCost

Applying functions with across from dplyr.

Combining with summarize():

# Adding arguments to the end!
#
cars_dbl %>%
  group_by(Make) %>%
  summarize(across(.cols = everything(), .fns = mean, na.rm = TRUE))

# A tibble: 33 × 12
   Make      Model  RefId IsBadBuy VehYear Vehicl…¹ VehOdo  BYRNO VNZIP1 VehBC…²
   <chr>     <dbl>  <dbl>    <dbl>   <dbl>    <dbl>  <dbl>  <dbl>  <dbl>   <dbl>
 1 ACURA        NA 36021.   0.273    2003.     6.52 81732. 21851. 61217.   9039.
 2 BUICK        NA 35431.   0.157    2004.     5.65 76238. 19755. 51298.   6169.
 3 CADILLAC     NA 34173.   0.152    2004.     5.24 73770. 20383. 50775.  10958.
 4 CHEVROLET    NA 35417.   0.0975   2006.     3.97 73390. 26912. 58874.   6835.
 5 CHRYSLER     NA 37614.   0.129    2006.     3.65 66814. 31268. 58562.   6507.
 6 DODGE        NA 36851.   0.103    2006.     3.75 68261. 36094. 58788.   7047.
 7 FORD         NA 36866.   0.154    2005.     4.75 76749. 19887. 59427.   6403.
 8 GMC          NA 35245.   0.116    2004.     5.61 79273. 18802. 58113.   8342.
 9 HONDA        NA 35109.   0.109    2004.     5.33 77877. 24161. 52659.   8350.
10 HUMMER       NA 19533    0        2006      3    70809  21053  95673   11920 
# … with 23 more rows, 2 more variables: IsOnlineSale <dbl>,
#   WarrantyCost <dbl>, and abbreviated variable names ¹​VehicleAge, ²​VehBCost

Applying functions with across from dplyr.

Using different tidyselect() options:

cars_dbl %>%
  group_by(Make) %>%
  summarize(across(.cols = starts_with("Veh"), .fns = mean))

# A tibble: 33 × 5
   Make      VehYear VehicleAge VehOdo VehBCost
   <chr>       <dbl>      <dbl>  <dbl>    <dbl>
 1 ACURA       2003.       6.52 81732.    9039.
 2 BUICK       2004.       5.65 76238.    6169.
 3 CADILLAC    2004.       5.24 73770.   10958.
 4 CHEVROLET   2006.       3.97 73390.    6835.
 5 CHRYSLER    2006.       3.65 66814.    6507.
 6 DODGE       2006.       3.75 68261.    7047.
 7 FORD        2005.       4.75 76749.    6403.
 8 GMC         2004.       5.61 79273.    8342.
 9 HONDA       2004.       5.33 77877.    8350.
10 HUMMER      2006        3    70809    11920 
# … with 23 more rows

Applying functions with across from dplyr.

Combining with mutate():

cars_dbl %>%
  mutate(across(.cols = starts_with("Veh"), .fns = round, digits = -3))

# A tibble: 72,983 × 12
   Make  Model RefId IsBad…¹ VehYear Vehic…² VehOdo BYRNO VNZIP1 VehBC…³ IsOnl…⁴
   <chr> <chr> <dbl>   <dbl>   <dbl>   <dbl>  <dbl> <dbl>  <dbl>   <dbl>   <dbl>
 1 MAZDA MAZD…     1       0    2000       0  89000 21973  33619    7000       0
 2 DODGE 1500…     2       0    2000       0  94000 19638  33619    8000       0
 3 DODGE STRA…     3       0    2000       0  74000 19638  33619    5000       0
 4 DODGE NEON      4       0    2000       0  66000 19638  33619    4000       0
 5 FORD  FOCUS     5       0    2000       0  69000 19638  33619    4000       0
 6 MITS… GALA…     6       0    2000       0  81000 19638  33619    6000       0
 7 KIA   SPEC…     7       0    2000       0  65000 19638  33619    4000       0
 8 FORD  TAUR…     8       0    2000       0  66000 19638  33619    4000       0
 9 KIA   SPEC…     9       0    2000       0  50000 21973  33619    6000       0
10 FORD  FIVE…    10       0    2000       0  85000 21973  33619    8000       0
# … with 72,973 more rows, 1 more variable: WarrantyCost <dbl>, and abbreviated
#   variable names ¹​IsBadBuy, ²​VehicleAge, ³​VehBCost, ⁴​IsOnlineSale

Applying functions with across from dplyr.

Combining with mutate():

cars_dbl %>%
  mutate(across(
    .cols = everything(),
    .fns = str_replace_all,
    pattern = "A",
    replacement = "a"
  ))

# A tibble: 72,983 × 12
   Make  Model RefId IsBad…¹ VehYear Vehic…² VehOdo BYRNO VNZIP1 VehBC…³ IsOnl…⁴
   <chr> <chr> <chr> <chr>   <chr>   <chr>   <chr>  <chr> <chr>  <chr>   <chr>  
 1 MaZDa MaZD… 1     0       2006    3       89046  21973 33619  7100    0      
 2 DODGE 1500… 2     0       2004    5       93593  19638 33619  7600    0      
 3 DODGE STRa… 3     0       2005    4       73807  19638 33619  4900    0      
 4 DODGE NEON  4     0       2004    5       65617  19638 33619  4100    0      
 5 FORD  FOCUS 5     0       2005    4       69367  19638 33619  4000    0      
 6 MITS… GaLa… 6     0       2004    5       81054  19638 33619  5600    0      
 7 KIa   SPEC… 7     0       2004    5       65328  19638 33619  4200    0      
 8 FORD  TaUR… 8     0       2005    4       65805  19638 33619  4500    0      
 9 KIa   SPEC… 9     0       2007    2       49921  21973 33619  5600    0      
10 FORD  FIVE… 10    0       2007    2       84872  21973 33619  7700    0      
# … with 72,973 more rows, 1 more variable: WarrantyCost <chr>, and abbreviated
#   variable names ¹​IsBadBuy, ²​VehicleAge, ³​VehBCost, ⁴​IsOnlineSale
…
Combining with mutate():

# Child mortality data
mort <- read_mortality() %>% rename(country = `...1`)

mort %>%
  select(country, starts_with("194")) %>%
  mutate(across(
    .cols = c(`1943`, `1944`, `1945`),
    .fns = replace_na,
    replace = 0
  ))

# A tibble: 197 × 11
   country `1940` `1941` `1942` `1943` `1944` `1945` `1946` `1947` `1948` `1949`
   <chr>    <dbl>  <dbl>  <dbl>  <dbl>  <dbl>  <dbl>  <dbl>  <dbl>  <dbl>  <dbl>
 1 Afghan… NA     NA     NA      0      0      0     NA     NA     NA     NA    
 2 Albania  1.53   1.31   1.48   1.46   1.43   1.40   1.37   1.41   1.37   1.34 
 3 Algeria NA     NA     NA      0      0      0     NA     NA     NA     NA    
 4 Angola   4.46   4.46   4.46   4.34   4.34   4.34   4.33   4.22   4.22   4.21 
 5 Argent…  0.641  0.603  0.602  0.558  0.551  0.510  0.503  0.496  0.494  0.492
 6 Armenia NA     NA     NA      0      0      0     NA     NA     NA     NA    
 7 Aruba   NA     NA     NA      0      0      0     NA     NA     NA     NA    
 8 Austra…  0.263  0.275  0.276  0.299  0.260  0.271  0.295  0.279  0.271  0.271
 9 Austria  0.504  0.474  0.417  0.389  0.360  0.311  0.311  0.312  0.274  0.274
10 Azerba… NA     NA     NA      0      0      0     NA     NA     NA     NA    
# … with 187 more rows
…
