Data Analysis with R - Data Summarization
…
table and dplyr: count

Use count directly on a data.frame and column without needing to use pull().

yts %>% count(LocationDesc)

# A tibble: 50 × 2
   LocationDesc             n
   <chr>                <int>
 1 Alabama                378
 2 Arizona                240
 3 Arkansas               210
 4 California              96
 5 Colorado                48
 6 Connecticut            384
 7 Delaware               312
 8 District of Columbia    48
 9 Florida                 96
10 Georgia                282
# … with 40 more rows

table and dplyr: count

Multiple columns listed further subdivides the count.

yts %>% count(LocationDesc, TopicDesc)

# A tibble: 146 × 3
   LocationDesc TopicDesc                         n
   <chr>        <chr>                         <int>
 1 Alabama      Cessation (Youth)                90
 2 Alabama      Cigarette Use (Youth)           144
 3 Alabama      Smokeless Tobacco Use (Youth)   144
 4 Arizona      Cessation (Youth)                60
 5 Arizona      Cigarette Use (Youth)            99
 6 Arizona      Smokeless Tobacco Use (Youth)    81
 7 Arkansas     Cessation (Youth)                42
 8 Arkansas     Cigarette Use (Youth)            78
 9 Arkansas     Smokeless Tobacco Use (Youth)    90
10 California   Cessation (Youth)                24
# … with 136 more rows

table and dplyr: count

Multiple columns listed further subdivides the count.

yts %>% count(LocationDesc, TopicDesc)

# A tibble: 146 × 3
   LocationDesc TopicDesc                         n
   <chr>        <chr>                         <int>
 1 Alabama      Cessation (Youth)                90
 2 Alabama      Cigarette Use (Youth)           144
 3 Alabama      Smokeless Tobacco Use (Youth)   144
 4 Arizona      Cessation (Youth)                60
 5 Arizona      Cigarette Use (Youth)            99
 6 Arizona      Smokeless Tobacco Use (Youth)    81
 7 Arkansas     Cessation (Youth)                42
 8 Arkansas     Cigarette Use (Youth)            78
 9 Arkansas     Smokeless Tobacco Use (Youth)    90
10 California   Cessation (Youth)                24
# … with 136 more rows

Note: count() includes NAs but table() does not

Grouping

Perform Operations By Groups: dplyr

group_by allows you group the data set by variables/columns you specify:

# Regular data
yts

# A tibble: 9,794 × 31
    YEAR Locat…¹ Locat…² Topic…³ Topic…⁴ Measu…⁵ DataS…⁶ Respo…⁷ Data_…⁸ Data_…⁹
   <dbl> <chr>   <chr>   <chr>   <chr>   <chr>   <chr>   <chr>   <chr>   <chr>  
 1  2015 AZ      Arizona Tobacc… Cessat… Percen… YTS     <NA>    %       Percen…
 2  2015 AZ      Arizona Tobacc… Cessat… Percen… YTS     <NA>    %       Percen…
 3  2015 AZ      Arizona Tobacc… Cessat… Percen… YTS     <NA>    %       Percen…
 4  2015 AZ      Arizona Tobacc… Cessat… Quit A… YTS     <NA>    %       Percen…
 5  2015 AZ      Arizona Tobacc… Cessat… Quit A… YTS     <NA>    %       Percen…
 6  2015 AZ      Arizona Tobacc… Cessat… Quit A… YTS     <NA>    %       Percen…
 7  2015 AZ      Arizona Tobacc… Cigare… Smokin… YTS     Current %       Percen…
 8  2015 AZ      Arizona Tobacc… Cigare… Smokin… YTS     Current %       Percen…
 9  2015 AZ      Arizona Tobacc… Cigare… Smokin… YTS     Current %       Percen…
10  2015 AZ      Arizona Tobacc… Cigare… Smokin… YTS     Ever    %       Percen…
# … with 9,784 more rows, 21 more variables: Data_Value <dbl>,
#   Data_Value_Footnote_Symbol <chr>, Data_Value_Footnote <chr>,
#   Data_Value_Std_Err <dbl>, Low_Confidence_Limit <dbl>,
#   High_Confidence_Limit <dbl>, Sample_Size <dbl>, Gender <chr>, Race <chr>,
#   Age <chr>, Education <chr>, GeoLocation <chr>, TopicTypeId <chr>,
#   TopicId <chr>, MeasureId <chr>, StratificationID1 <chr>,
#   StratificationID2 <chr>, StratificationID3 <chr>, …

Perform Operations By Groups: dplyr

group_by allows you group the data set by variables/columns you specify:

yts_grouped <- yts %>% group_by(Response)
yts_grouped

# A tibble: 9,794 × 31
# Groups:   Response [4]
    YEAR Locat…¹ Locat…² Topic…³ Topic…⁴ Measu…⁵ DataS…⁶ Respo…⁷ Data_…⁸ Data_…⁹
   <dbl> <chr>   <chr>   <chr>   <chr>   <chr>   <chr>   <chr>   <chr>   <chr>  
 1  2015 AZ      Arizona Tobacc… Cessat… Percen… YTS     <NA>    %       Percen…
 2  2015 AZ      Arizona Tobacc… Cessat… Percen… YTS     <NA>    %       Percen…
 3  2015 AZ      Arizona Tobacc… Cessat… Percen… YTS     <NA>    %       Percen…
 4  2015 AZ      Arizona Tobacc… Cessat… Quit A… YTS     <NA>    %       Percen…
 5  2015 AZ      Arizona Tobacc… Cessat… Quit A… YTS     <NA>    %       Percen…
 6  2015 AZ      Arizona Tobacc… Cessat… Quit A… YTS     <NA>    %       Percen…
 7  2015 AZ      Arizona Tobacc… Cigare… Smokin… YTS     Current %       Percen…
 8  2015 AZ      Arizona Tobacc… Cigare… Smokin… YTS     Current %       Percen…
 9  2015 AZ      Arizona Tobacc… Cigare… Smokin… YTS     Current %       Percen…
10  2015 AZ      Arizona Tobacc… Cigare… Smokin… YTS     Ever    %       Percen…
# … with 9,784 more rows, 21 more variables: Data_Value <dbl>,
#   Data_Value_Footnote_Symbol <chr>, Data_Value_Footnote <chr>,
#   Data_Value_Std_Err <dbl>, Low_Confidence_Limit <dbl>,
#   High_Confidence_Limit <dbl>, Sample_Size <dbl>, Gender <chr>, Race <chr>,
#   Age <chr>, Education <chr>, GeoLocation <chr>, TopicTypeId <chr>,
#   TopicId <chr>, MeasureId <chr>, StratificationID1 <chr>,
#   StratificationID2 <chr>, StratificationID3 <chr>, …
…
Ungroup the data

The ungroup function will allow you to clear the groups from the data. You can also overwrite the first group_by with a new one.

yts = ungroup(yts)
yts

# A tibble: 9,794 × 31
    YEAR Locat…¹ Locat…² Topic…³ Topic…⁴ Measu…⁵ DataS…⁶ Respo…⁷ Data_…⁸ Data_…⁹
   <dbl> <chr>   <chr>   <chr>   <chr>   <chr>   <chr>   <chr>   <chr>   <chr>  
 1  2015 AZ      Arizona Tobacc… Cessat… Percen… YTS     <NA>    %       Percen…
 2  2015 AZ      Arizona Tobacc… Cessat… Percen… YTS     <NA>    %       Percen…
 3  2015 AZ      Arizona Tobacc… Cessat… Percen… YTS     <NA>    %       Percen…
 4  2015 AZ      Arizona Tobacc… Cessat… Quit A… YTS     <NA>    %       Percen…
 5  2015 AZ      Arizona Tobacc… Cessat… Quit A… YTS     <NA>    %       Percen…
 6  2015 AZ      Arizona Tobacc… Cessat… Quit A… YTS     <NA>    %       Percen…
 7  2015 AZ      Arizona Tobacc… Cigare… Smokin… YTS     Current %       Percen…
 8  2015 AZ      Arizona Tobacc… Cigare… Smokin… YTS     Current %       Percen…
 9  2015 AZ      Arizona Tobacc… Cigare… Smokin… YTS     Current %       Percen…
10  2015 AZ      Arizona Tobacc… Cigare… Smokin… YTS     Ever    %       Percen…
# … with 9,784 more rows, 21 more variables: Data_Value <dbl>,
#   Data_Value_Footnote_Symbol <chr>, Data_Value_Footnote <chr>,
#   Data_Value_Std_Err <dbl>, Low_Confidence_Limit <dbl>,
#   High_Confidence_Limit <dbl>, Sample_Size <dbl>, Gender <chr>, Race <chr>,
#   Age <chr>, Education <chr>, GeoLocation <chr>, TopicTypeId <chr>,
#   TopicId <chr>, MeasureId <chr>, StratificationID1 <chr>,
#   StratificationID2 <chr>, StratificationID3 <chr>, …

group_by with mutate - just add data

We can also use mutate to calculate the mean value for each year and add it as a column:

yts %>%
  group_by(YEAR) %>%
  mutate(year_avg = mean(Data_Value, na.rm = TRUE)) %>%
  select(LocationDesc, Data_Value, year_avg)

# A tibble: 9,794 × 4
# Groups:   YEAR [17]
    YEAR LocationDesc Data_Value year_avg
   <dbl> <chr>             <dbl>    <dbl>
 1  2015 Arizona            NA       15.2
 2  2015 Arizona            NA       15.2
 3  2015 Arizona            NA       15.2
 4  2015 Arizona            NA       15.2
 5  2015 Arizona            NA       15.2
 6  2015 Arizona            NA       15.2
 7  2015 Arizona             3.2     15.2
 8  2015 Arizona             3.2     15.2
 9  2015 Arizona             3.1     15.2
10  2015 Arizona            12.5     15.2
# … with 9,784 more rows
…
