Data Analysis with R - Data Input/Output
…
problems(dat)

# A tibble: 0 × 5
# … with 5 variables: row <int>, col <int>, expected <chr>, actual <chr>,
#   file <chr>

Data Input: Checking for problems

dat looks good so far. What do you see on a messy dataset?

ufo_data <- read_csv(file = "https://github.com/SISBID/Data-Wrangling/blob/gh-pages/data/ufo/ufo_data_complete.csv")

problems(ufo_data)

# A tibble: 67 × 5
     row   col expected  actual      file 
   <int> <int> <chr>     <chr>       <chr>
 1    16   367 1 columns 367 columns ""   
 2    58     3 1 columns 3 columns   ""   
 3    79     3 1 columns 3 columns   ""   
 4   115     3 1 columns 3 columns   ""   
 5   123     6 1 columns 6 columns   ""   
 6   151     4 1 columns 4 columns   ""   
 7   161     4 1 columns 4 columns   ""   
 8   171     4 1 columns 4 columns   ""   
 9   181     4 1 columns 4 columns   ""   
10   191     4 1 columns 4 columns   ""   
# … with 57 more rows
…
